Fay Nguyen - Mini Project 2: Simulation - The Effects of Two Factors On The Power of A Statistical Test
…
[1] 0.02
[1] 0.01
[1] 0.08
[1] 0.04
[1] 0.02
[1] 0.1
[1] 0.02
[1] 0.07
[1] 0.07
[1] 0.01

combined_data_error

# A tibble: 100 × 3
   n_per_group power error_level
         <dbl> <dbl>       <dbl>
 1           5 0.021        0.02
 2          10 0.021        0.02
 3          15 0.018        0.02
 4          20 0.018        0.02
 5          25 0.031        0.02
 6          30 0.015        0.02
 7          35 0.02         0.02
 8          40 0.018        0.02
 9          45 0.021        0.02
10          50 0.019        0.02
# ℹ 90 more rows
…
