Fay Nguyen - SQL Practice
…
Plot number of flights vs. proportion cancelled for every origin-destination pair (assuming that a missing arrival time indicates a cancelled flight). [This was #7 in 17_longer_pipelines.Rmd.]

# Original solution from MSCS 164
res2 <- flights_nyc13 |>
  group_by(origin, dest) |>
  summarize(n = n(),
            prop_cancelled = mean(is.na(arr_time))) |>
  filter(prop_cancelled < 1)

`summarise()` has grouped output by 'origin'. You can override using the
`.groups` argument.

res2

# A tibble: 223 × 4
# Groups:   origin [3]
   origin dest      n prop_cancelled
   <chr>  <chr> <int>          <dbl>
 1 EWR    ALB     439        0.0478 
 2 EWR    ANC       8        0      
 3 EWR    ATL    5022        0.0271 
 4 EWR    AUS     968        0.00930
 5 EWR    AVL     265        0.0453 
 6 EWR    BDL     443        0.0700 
 7 EWR    BNA    2336        0.0385 
 8 EWR    BOS    5327        0.0146 
 9 EWR    BQN     297        0.00673
10 EWR    BTV     931        0.0473 
# ℹ 213 more rows
…
